Monomer,monomer_peak,monomer_steady,peak_contr,steady_contr
C9H12O2,28.445120321007046,3.2406752763636386,0.16815902106534322,0.2944158819478833
C9H12O3,49.3355407,5.311557876363639,0.2916569216166946,0.48255590681753663
C9H12O4,356.43518,47.78409272727276,2.1071378945015278,4.341192684743653
C9H12O6,458.84538999999995,65.173162,2.7125563447085446,5.9209924886683325
C9H12O7,746.0789900000001,79.67692200000008,4.410595250784242,7.238661470533116
C9H12O8,782.7703120000001,81.28960036363641,4.627503343261414,7.385173565154651
C9H12O9,694.0055100000001,57.533228181818195,4.1027524530936,5.226903244519373
C9H12O10,451.67732000000007,33.311849454545445,2.6701808644671177,3.0263870027360933
C9H12O11,221.19561,17.481035163636356,1.3076421130158393,1.5881549202421366
C9H13O5,253.19382000000002,30.29861563636364,1.4968059347441482,2.7526342146780904
C9H13O6,137.972422,14.439370936363654,0.8156515829676414,1.311819224841431
C9H13O7,120.164101,9.539459943636363,0.7103741296687069,0.8666615051180626
C9H13O8,67.470617,9.104325359999995,0.39886605426012933,0.8271294566151719
C9H13O9,85.1191032,11.73812870909091,0.5031986121535653,1.066410924140053
C9H13O10,61.9291153,12.710457709090907,0.36610635802443614,1.1547471737379222
C9H13O11,59.261054800000004,12.054682800000004,0.3503335844604667,1.0951699153722103
C9H14O2,21.62001565,3.123557209090907,0.12781104899867368,0.2837756862702638
C9H14O3,29.296968499999995,4.70227926181818,0.17319489204283248,0.4272028444599069
C9H14O4,61.8640687,8.797198563636364,0.36572182203175296,0.7992269366432573
C9H14O5,240.82839800000002,30.054418363636373,1.4237052680880038,2.73044885228043
C9H14O6,1278.3911103,58.68291581818179,7.557464873436488,5.331352555406325
C9H14O7,2242.20761,162.11235799999977,13.255258985296296,14.727934391741037
C9H14O8,1458.70164,49.07618054545449,8.623406652551875,4.458579075573576
C9H14O9,1117.169932,43.5539172727273,6.604373615182695,3.9568805488354277
C9H14O10,509.22793,18.45510200000002,3.0104028122071766,1.6766490525595188
C9H14O11,170.561722,7.764645654545453,1.0083097515167692,0.705419334997661
C9H15O5,144.1776635,10.617599981818183,0.8523351098551487,0.9646107049406392
C9H15O6,110.283671,8.370467720000004,0.6519639905040775,0.7604583693017803
C9H15O7,400.17872700000004,9.296485992181807,2.3657366263203357,0.8445872816592641
C9H15O8,287.43666099999996,14.823296254545443,1.6992393418126945,1.3466989031538625
C9H15O9,200.395237,17.458857981818202,1.1846765455652122,1.5861401196258167
C9H15O10,91.60337700000001,17.335379472727265,0.5415316943209973,1.574922076762722
C9H15O11,59.77696,13.014252309090894,0.35338346129049897,1.1823469631220545
C9H16O4,90.3834,12.869865399999997,0.5343195561501234,1.169229388679537
C9H16O5,148.2795756,21.787458363636368,0.8765843840873508,1.9793941763676426
C9H16O6,376.42983197,27.122784727272727,2.2253402808466594,2.464109454163816
C9H16O7,644.8118598,24.490723090909068,3.811934345562035,2.2249862215267178
C9H16O8,900.84833469,14.523716690909097,5.3255452035455475,1.3194820505167395
C9H16O9,950.0392623000001,9.7676218,5.616347215941498,0.8873900473012657
C9H16O10,553.4011509000001,6.24798289763636,3.2715416472699133,0.5676302740418377
C9H16O11,253.79339,15.977242509090908,1.5003504127819396,1.451535110203179
