Molecule,contribution_to_total,peak_signal,steady_state_signal
C9H12O2,0.11716129066075666,70.76664429999998,4.611658070731705
C9H12O3,0.20212395994239243,122.08498469999998,7.55513853658536
C9H12O4,0.5642574197971059,340.81738,36.102936097561006
C9H12O6,1.9083476509330373,1152.66193,83.4714169512196
C9H12O7,3.1834562613680326,1922.84086,118.40255560975616
C9H12O8,3.9417208532739534,2380.8406,142.89598609756095
C9H12O9,2.9502280296495984,1781.96857,100.72489378048768
C9H12O10,2.0518620048707783,1239.3461,63.471993780487814
C9H12O11,0.8503957457314829,513.6479199999999,29.549210853658508
C9H13O5,1.0110440084297618,610.68115,43.17231792682922
C9H13O6,0.568708783154473,343.50605,21.3954632195122
C9H13O7,0.31082769995856324,187.74318000000002,12.73769390243903
C9H13O8,0.20489285225281312,123.7574246,9.132612953841459
C9H13O9,0.23927003278179895,144.521601,11.70178368292686
C9H13O10,0.20594956310333473,124.39568899999999,12.77684118292683
C9H13O11,0.21322322198594318,128.789055,13.26098476829269
C9H14O2,0.08617330696813735,52.04957821799999,3.583993813414638
C9H14O3,0.10720786342194326,64.75467019999999,4.921712106097564
C9H14O4,0.26126480279594533,157.80667201,10.917541182926838
C9H14O5,1.0211161867590393,616.764851,37.96891743902437
C9H14O6,5.105522615268093,3083.7890299999995,113.78242585365847
C9H14O7,11.994729774119634,7244.94217,337.6469853658534
C9H14O8,6.144771367344927,3711.50614,112.71502390243896
C9H14O9,4.6598933923664365,2814.6243210000002,103.67775487804877
C9H14O10,2.2054142066061297,1332.093235,47.04782024390245
C9H14O11,0.7158604069232477,432.387169,17.574634646341472
C9H15O5,0.6860096326581555,414.35698929999995,20.093253585365858
C9H15O6,0.44306396100739154,267.615264,13.832166841463431
C9H15O7,0.9148422793584996,552.5743,9.306349270890244
C9H15O8,1.0052237945909777,607.1656799999998,15.040240292682938
C9H15O9,0.5474360254954136,330.657082,18.332754146341482
C9H15O10,0.30876204696720816,186.495504,20.876538999999987
C9H15O11,0.29327475043714146,177.14101499999998,16.529983073170722
C9H16O4,0.3731812234518021,225.40535999999997,16.266728402439036
C9H16O5,0.5902700098276064,356.52925630000004,23.527410487804893
C9H16O6,1.4843941522262099,896.589585,35.51718536585371
C9H16O7,3.0319113874745325,1831.306172,47.26667280487806
C9H16O8,4.024605463487556,2430.903771,40.17671060975612
C9H16O9,4.397899303698905,2656.3771527000004,37.52830902439026
C9H16O10,1.7552081705315172,1060.1640830000001,17.189857524390263
C9H16O11,0.5648740813099425,341.18985000000004,20.050446890243872
C18H24O10,0.4921385769021762,297.256845,8.222504792682935
C18H24O11,0.7007133975501707,423.238217,13.978179743902444
C18H24O12,1.8177662219419337,1097.9497999999999,29.15990560975611
C18H24O13,0.9733747729560174,587.928538,15.201698402439003
C18H24O14,0.5600728730139831,338.2898700000001,10.471920573170731
C18H24O15,0.3501536931825537,211.496491,6.2483500487804955
C18H25O10,0.1478494411618104,89.30260799999999,5.38205151097561
C18H25O11,0.1637299891639985,98.894625,4.9295607451219485
C18H25O12,0.14027553532327428,84.7278897,4.819885397317073
C18H25O13,0.09008015952090535,54.409358,4.244963388414638
C18H25O14,0.11280767677057468,68.13701600000002,3.919268884146339
C18H25O15,0.06514941533637734,39.3509279,2.881786233536585
C18H26O10,2.2268750951151586,1345.055836,13.201058658536558
C18H26O11,1.286449087178003,777.0286965000001,13.668957621951217
C18H26O12,3.2944810476375723,1989.9009915,25.24949726829264
C18H26O13,1.5573597072882386,940.661543,12.418908243902436
C18H26O14,0.8361873426304534,505.065896,9.082800390243902
C18H26O15,0.33345115990319757,201.4079863,4.227728718292674
C18H27O10,0.15247682084371458,92.0975937,4.628203980487805
C18H27O11,0.17337076436356633,104.71775399999997,4.99786716719512
C18H27O12,0.20103771086136868,121.42887889999999,5.189424221951221
C18H27O13,0.1896907505285866,114.57519624400001,4.994543060975606
C18H27O14,0.1533656663875695,92.63446569999999,3.980207737317074
C18H27O15,0.10562649608876558,63.7995078,2.7528010117073176
C18H28O10,1.2558351824118414,758.5375779999999,11.102345536585359
C18H28O11,1.7194303178864223,1038.553886,11.077857560975602
C18H28O12,3.0380298229731704,1835.0017710000002,10.575407682926837
C18H28O13,1.7656196492798943,1066.4527249999999,7.468216892682932
C18H28O14,0.9880421532128427,596.787789,4.456226358536585
C18H28O15,0.33862224557250403,204.5313761,2.793270137926833
C18H29O10,0.1618871583096263,97.78153589999998,4.099528069999998
C18H29O11,0.18077201871999235,109.18818900000001,4.14737277987805
C18H29O12,0.1233218937408563,74.48771296,3.9006336165853592
C18H29O13,0.1503572442823064,90.8173473,3.316586635365852
C18H29O14,0.1445073294674925,87.2839376,3.1276574876829284
C18H29O15,0.10081776176411895,60.89498199999999,2.687732193780486
C18H30O10,0.48545722631150284,293.2212394,8.89543076829269
C18H30O11,0.4759846982000738,287.4997334000001,7.064913985365859
C18H30O12,0.6042574265214715,364.9778021999999,5.137355099999994
C18H30O13,0.49546700903192253,299.2672528,3.409184589048782
C18H30O14,0.37957628048743974,229.26804130000005,2.4414098825609782
C18H30O15,0.2211515971863479,133.5778765,2.0520950109756084
