Dimer,dimer_peak,dimer_steady,peak_contr,steady_contr,steady_contr_sum
C18H24O12,1097.9497999999999,29.15990560975611,6.321869022332215,9.357962083752792,9.357962083752792
C18H26O12,1989.9009915,25.24949726829264,11.457621683315585,8.103038508857454,17.461000592610247
C18H24O13,587.928538,15.201698402439003,3.3852250910991275,4.878510896519305,22.339511489129553
C18H24O11,423.238217,13.978179743902444,2.4369571114448223,4.485860749822038,26.82537223895159
C18H26O11,777.0286965000001,13.668957621951217,4.474042115465144,4.386625555737287,31.211997794688877
C18H26O10,1345.055836,13.201058658536558,7.744677236532636,4.2364679791916116,35.448465773880486
C18H26O13,940.661543,12.418908243902436,5.416221278232324,3.985461202218754,39.43392697609924
C18H28O10,758.5375779999999,11.102345536585359,4.367572375925663,3.5629514705056966,42.99687844660493
C18H28O11,1038.553886,11.077857560975602,5.9798741617568885,3.5550928186180406,46.551971265222974
C18H28O12,1835.0017710000002,10.575407682926837,10.5657297373793,3.3938472038107887,49.94581846903376
C18H24O14,338.2898700000001,10.471920573170731,1.947834272315358,3.3606362441384507,53.30645471317221
C18H26O14,505.065896,9.082800390243902,2.9081115021459674,2.9148414540052556,56.221296167177464
C18H30O10,293.2212394,8.89543076829269,1.688334266332321,2.8547110186968534,59.07600718587432
C18H24O10,297.256845,8.222504792682935,1.7115708205254092,2.6387564182532377,61.714763604127555
C18H28O13,1066.4527249999999,7.468216892682932,6.140512476945008,2.3966912462016543,64.11145485032921
C18H30O11,287.4997334000001,7.064913985365859,1.6553904909953363,2.267263758834283,66.3787186091635
C18H24O15,211.496491,6.2483500487804955,1.2177725382206583,2.005213035495551,68.38393164465904
C18H25O10,89.30260799999999,5.38205151097561,0.5141941745685249,1.7272015433295305,70.11113318798857
C18H27O12,121.42887889999999,5.189424221951221,0.6991735577841901,1.66538382378303,71.7765170117716
C18H30O12,364.9778021999999,5.137355099999994,2.1015003250304107,1.6486738633505502,73.42519087512215
C18H27O11,104.71775399999997,4.99786716719512,0.602952817242469,1.6039095625397701,75.02910043766192
C18H27O13,114.57519624400001,4.994543060975606,0.6597108391135715,1.6028427943416534,76.63194323200358
C18H25O11,98.894625,4.9295607451219485,0.5694239083268298,1.5819887471437255,78.2139319791473
C18H25O12,84.7278897,4.819885397317073,0.4878534712807551,1.5467918655071455,79.76072384465445
C18H27O10,92.0975937,4.628203980487805,0.5302873816666014,1.4852776941358856,81.24600153879034
C18H28O14,596.787789,4.456226358536585,3.4362356422718365,1.4300868410854204,82.67608837987576
C18H25O13,54.409358,4.244963388414638,0.3132828430454503,1.3622885810169536,84.03837696089272
C18H26O15,201.4079863,4.227728718292674,1.1596840852289252,1.3567576512641029,85.39513461215682
C18H29O11,109.18818900000001,4.14737277987805,0.6286930692493001,1.3309699194740232,86.72610453163085
C18H29O10,97.78153589999998,4.099528069999998,0.5630148689514541,1.315615652319017,88.04172018394986
C18H27O14,92.63446569999999,3.980207737317074,0.5333786290676734,1.2773235136540007,89.31904369760386
C18H25O14,68.13701600000002,3.919268884146339,0.3923251233567825,1.2577670896713273,90.57681078727519
C18H29O12,74.48771296,3.9006336165853592,0.42889170807827265,1.251786681861026,91.82859746913621
C18H30O13,299.2672528,3.409184589048782,1.7231465180601009,1.0940714468622617,92.92266891599847
C18H29O13,90.8173473,3.316586635365852,0.5229158697294323,1.0643550221524354,93.98702393815091
C18H29O14,87.2839376,3.1276574876829284,0.5025709019306877,1.0037241057086932,94.99074804385961
C18H25O15,39.3509279,2.881786233536585,0.22657812961124316,0.9248193964624322,95.91556744032205
C18H28O15,204.5313761,2.793270137926833,1.1776682054694756,0.8964129167706475,96.8119803570927
C18H27O15,63.7995078,2.7528010117073176,0.3673502486187097,0.8834256131149687,97.69540597020766
C18H29O15,60.89498199999999,2.687732193780486,0.35062632218820733,0.8625438057750238,98.55794977598268
C18H30O14,229.26804130000005,2.4414098825609782,1.3200990865932607,0.7834943438315225,99.3414441198142
C18H30O15,133.5778765,2.0520950109756084,0.7691260925720543,0.658555880185808,100.0
